%YAML 1.1
%TAG !u! tag:unity3d.com,2011:
--- !u!1045 &1
EditorBuildSettings:
  m_ObjectHideFlags: 0
  serializedVersion: 2
  m_Scenes:
  - enabled: 1
    path: Assets/Scenes/Title.unity
    guid: a3322dcb356bd524b829d51d3b9d9501
  - enabled: 1
    path: Assets/Scenes/Level1.unity
    guid: fccd1aa633a5c3b4397dc2668337ec88
  - enabled: 1
    path: Assets/Scenes/GameOver.unity
    guid: e85b23cc680455048a9fbcf33f006c56
